…
    ## See spec(...) for full column specifications.

``` r
nycsubway = janitor::clean_names(nycsubway) #clean up variable names

nycsubway
```

    ## # A tibble: 1,868 x 32
    ##    division line  station_name station_latitude station_longitu~ route1
    ##    <chr>    <chr> <chr>                   <dbl>            <dbl> <chr> 
    ##  1 BMT      4 Av~ 25th St                  40.7            -74.0 R     
    ##  2 BMT      4 Av~ 25th St                  40.7            -74.0 R     
    ##  3 BMT      4 Av~ 36th St                  40.7            -74.0 N     
    ##  4 BMT      4 Av~ 36th St                  40.7            -74.0 N     
    ##  5 BMT      4 Av~ 36th St                  40.7            -74.0 N     
    ##  6 BMT      4 Av~ 45th St                  40.6            -74.0 R     
    ##  7 BMT      4 Av~ 45th St                  40.6            -74.0 R     
    ##  8 BMT      4 Av~ 45th St                  40.6            -74.0 R     
    ##  9 BMT      4 Av~ 45th St                  40.6            -74.0 R     
    ## 10 BMT      4 Av~ 53rd St                  40.6            -74.0 R     
    ## # ... with 1,858 more rows, and 26 more variables: route2 <chr>,
    ## #   route3 <chr>, route4 <chr>, route5 <chr>, route6 <chr>, route7 <chr>,
    ## #   route8 <int>, route9 <int>, route10 <int>, route11 <int>,
    ## #   entrance_type <chr>, entry <chr>, exit_only <chr>, vending <chr>,
    ## #   staffing <chr>, staff_hours <chr>, ada <lgl>, ada_notes <chr>,
    ## #   free_crossover <lgl>, north_south_street <chr>,
    ## #   east_west_street <chr>, corner <chr>, entrance_latitude <dbl>,
    ## #   entrance_longitude <dbl>, station_location <chr>,
    ## #   entrance_location <chr>
…
``` r
nyc_subway = 
  select(nycsubway, line, station_name, station_latitude, station_longitude, route1:route11, entry, vending, entrance_type, ada) %>%  #select required variables
  mutate(entry = (entry == "YES")) #convert entry variable from character to logical, yes = TRUE

nyc_subway
```

    ## # A tibble: 1,868 x 19
    ##    line  station_name station_latitude station_longitu~ route1 route2
    ##    <chr> <chr>                   <dbl>            <dbl> <chr>  <chr> 
    ##  1 4 Av~ 25th St                  40.7            -74.0 R      <NA>  
    ##  2 4 Av~ 25th St                  40.7            -74.0 R      <NA>  
    ##  3 4 Av~ 36th St                  40.7            -74.0 N      R     
    ##  4 4 Av~ 36th St                  40.7            -74.0 N      R     
    ##  5 4 Av~ 36th St                  40.7            -74.0 N      R     
    ##  6 4 Av~ 45th St                  40.6            -74.0 R      <NA>  
    ##  7 4 Av~ 45th St                  40.6            -74.0 R      <NA>  
    ##  8 4 Av~ 45th St                  40.6            -74.0 R      <NA>  
    ##  9 4 Av~ 45th St                  40.6            -74.0 R      <NA>  
    ## 10 4 Av~ 53rd St                  40.6            -74.0 R      <NA>  
    ## # ... with 1,858 more rows, and 13 more variables: route3 <chr>,
    ## #   route4 <chr>, route5 <chr>, route6 <chr>, route7 <chr>, route8 <int>,
    ## #   route9 <int>, route10 <int>, route11 <int>, entry <lgl>,
    ## #   vending <chr>, entrance_type <chr>, ada <lgl>
…
    ## [1] 0.8928571

Reformat data so that route number and route name are distinct variables. How many distinct stations serve the A train? Of the stations that serve the A train, how many are ADA compliant?

``` r
distinct(nyc_subway, line, station_name) 
```

    ## # A tibble: 465 x 2
    ##    line     station_name            
    ##    <chr>    <chr>                   
    ##  1 4 Avenue 25th St                 
    ##  2 4 Avenue 36th St                 
    ##  3 4 Avenue 45th St                 
    ##  4 4 Avenue 53rd St                 
    ##  5 4 Avenue 59th St                 
    ##  6 4 Avenue 77th St                 
    ##  7 4 Avenue 86th St                 
    ##  8 4 Avenue 95th St                 
    ##  9 4 Avenue 9th St                  
    ## 10 4 Avenue Atlantic Av-Barclays Ctr
    ## # ... with 455 more rows
